work/rtl_sim/com.log

Warning-[DEBUG_DEP] Option will be deprecated
  The option '-debug_all' will be deprecated in a future release.  Please use 
  '-debug_acc+all+dmptf -debug_region+cell+encrypt' instead.


Warning-[DBGACC_DBG] Multiple debug options being used
  The debug switches '-debug_access' and '-debug_all' are being used together.
  For better performance, consider using only '-debug_access'.

Command: vcs -sverilog -kdb +v2k -debug_access+all -debug_all -full64 -timescale=1ns/1ns \
-l com.log -f /data/usr/xuemy/try/icache_2r_v1/icache/icache_filelist.f -R +WAVE \

                         Chronologic VCS (TM)
         Version T-2022.06_Full64 -- Fri Nov  1 14:14:14 2024

                    Copyright (c) 1991 - 2022 Synopsys, Inc.
   This software and the associated documentation are proprietary to Synopsys,
 Inc. This software may only be used in accordance with the terms and conditions
 of a written license agreement with Synopsys, Inc. All other use, reproduction,
   or distribution of this software is strictly prohibited.  Licensed Products
     communicate with Synopsys servers for the purpose of providing software
    updates, detecting software piracy and verifying that customers are using
    Licensed Products in conformity with the applicable License Key for such
  Licensed Products. Synopsys will use information gathered in connection with
    this process to deliver software updates and pursue software pirates and
                                   infringers.

 Inclusivity & Diversity - Visit SolvNetPlus to read the "Synopsys Statement on
            Inclusivity and Diversity" (Refer to article 000036315 at
                        https://solvnetplus.synopsys.com)


Warning-[DEBUG_DEP] Option will be deprecated
  The option '-debug_all' will be deprecated in a future release.  Please use 
  '-debug_acc+all -debug_region+cell+encrypt' instead.

Parsing design file '/data/usr/xuemy/try/icache_2r_v1/icache/toy_pack.sv'
Parsing design file '/data/usr/xuemy/try/icache_2r_v1/icache/icache_top.sv'
Parsing design file '/data/usr/xuemy/try/icache_2r_v1/icache/cmn_lead_one.sv'
Parsing design file '/data/usr/xuemy/try/icache_2r_v1/icache/cmn_onehot2bin.sv'
Parsing design file '/data/usr/xuemy/try/icache_2r_v1/icache/cmn_onehot2bin2.sv'
Parsing design file '/data/usr/xuemy/try/icache_2r_v1/icache/icache_req_arbiter.sv'
Parsing design file '/data/usr/xuemy/try/icache_2r_v1/icache/fix_priority_arb.sv'
Parsing design file '/data/usr/xuemy/try/icache_2r_v1/icache/icache_tag_pipe_2tagram.sv'
Parsing design file '/data/usr/xuemy/try/icache_2r_v1/icache/icache_prefetch_engine.sv'
Parsing design file '/data/usr/xuemy/try/icache_2r_v1/icache/icache_mshr_entry.sv'
Parsing design file '/data/usr/xuemy/try/icache_2r_v1/icache/icache_mshr_file.sv'
Parsing design file '/data/usr/xuemy/try/icache_2r_v1/icache/icache_data_array_ctrl.sv'
Parsing design file '/data/usr/xuemy/try/icache_2r_v1/icache/mem/toy_mem_model_bit.sv'
Parsing design file '/data/usr/xuemy/try/icache_2r_v1/icache/pre_allocate.sv'
Parsing design file '/data/usr/xuemy/try/icache_2r_v1/icache/sync_fifo.sv'
Parsing design file '/data/usr/xuemy/try/icache_2r_v1/icache/vrp_arb.sv'
Parsing design file '/data/usr/xuemy/try/icache_2r_v1/icache/arb_vrp.sv'
Parsing design file '/data/usr/xuemy/try/icache_2r_v1/icache/arb_fp.sv'
Parsing design file '/data/usr/xuemy/try/icache_2r_v1/icache/v_en_decode.sv'
Parsing design file '/data/usr/xuemy/try/icache_2r_v1/icache/cmn_real_mux_onehot.sv'
Parsing design file '/data/usr/xuemy/try/icache_2r_v1/icache/icache_top_v2_tb.sv'
Top Level Modules:
       fix_priority_arb
       icache_prefetch_engine
       sync_fifo
       arb_vrp
       icache_top_tb
TimeScale is 1 ns / 1 ns

Warning-[IWNF] Implicit wire has no fanin
/data/usr/xuemy/try/icache_2r_v1/icache/icache_top_v2_tb.sv, 414
  Implicit wire 'upstream_txdat_rdy' does not have any driver, please make 
  sure this is intended.


Warning-[IWNF] Implicit wire has no fanin
/data/usr/xuemy/try/icache_2r_v1/icache/icache_top_v2_tb.sv, 434
  Implicit wire 'pref_to_mshr_req_rdy' does not have any driver, please make 
  sure this is intended.


Warning-[PCWM-W] Port connection width mismatch
/data/usr/xuemy/try/icache_2r_v1/icache/icache_top_v2_tb.sv, 408
"icache_top dut( .clk (clk),  .rst_n (rst_n),  .prefetch_enable (prefetch_enable),  .upstream_txdat_data (upstream_txdat_data),  .upstream_txdat_vld (upstream_txdat_vld),  .upstream_txdat_rdy (upstream_txdat_rdy),  .upstream_txdat_txnid (upstream_txdat_txnid),  .upstream_rxreq_vld (upstream_rxreq_vld),  .upstream_rxreq_rdy (upstream_rxreq_rdy),  .upstream_rxreq_pld (upstream_rxreq_pld),  .downstream_rxsnp_vld (downstream_rxsnp_vld),  .downstream_rxsnp_rdy (downstream_rxsnp_rdy),  .downstream_rxsnp_pld (downstream_rxsnp_pld),  .downstream_txreq_vld (downstream_txreq_vld),  .downstream_txreq_rdy (downstream_txreq_rdy),  .downstream_txreq_pld (downstream_txreq_pld),  .downstream_txreq_entry_id (downstream_txreq_entry_id),  .downstream_txrsp_vld (downstream_ ... "
  The following 32-bit expression is connected to 42-bit port 
  "prefetch_req_pld" of module "icache_top", instance "dut".
  Expression: 'b0
  Instantiated module defined at: 
  "/data/usr/xuemy/try/icache_2r_v1/icache/icache_top.sv", 1
  Use +lint=PCWM for more details.

Starting vcs inline pass...

13 modules and 0 UDP read.
recompiling module icache_top_tb
	However, due to incremental compilation, only 1 module needs to be compiled. 
make[1]: Entering directory '/data/usr/xuemy/try/icache_2r_v1/icache/work/rtl_sim/csrc' \

rm -f _cuarc*.so _csrc*.so pre_vcsobj_*.so share_vcsobj_*.so
ld -shared  -Bsymbolic   -o .//../simv.daidir//_cuarc0.so objs/amcQw_d.o 
rm -f _cuarc0.so
if [ -x ../simv ]; then chmod a-x ../simv; fi
g++  -o ../simv   -no-pie    -rdynamic  -Wl,-rpath='$ORIGIN'/simv.daidir -Wl,-rpath=./simv.daidir \
-Wl,-rpath=/tools/software/synopsys/vcs/T-2022.06/linux64/lib -L/tools/software/synopsys/vcs/T-2022.06/linux64/lib \
-Wl,-rpath-link=./ -Wl,--no-as-needed     _943159_archive_1.so _prev_archive_1.so \
_cuarc0.so  SIM_l.o       rmapats_mop.o rmapats.o rmar.o rmar_nd.o  rmar_llvm_0_1.o \
rmar_llvm_0_0.o           -lnuma -lvirsim -lerrorinf -lsnpsmalloc -lvfs    -lvcsnew \
-lsimprofile -luclinative /tools/software/synopsys/vcs/T-2022.06/linux64/lib/vcs_tls.o \
-Wl,-whole-archive  -lvcsucli    -Wl,-no-whole-archive        _vcs_pli_stub_.o   \
/tools/software/synopsys/vcs/T-2022.06/linux64/lib/vcs_save_restore_new.o /tools/software/synopsys/verdi/T-2022.06/share/PLI/VCS/LINUX64/pli.a \
-ldl  -lc -lm -lpthread -ldl 
../simv up to date
make[1]: Leaving directory '/data/usr/xuemy/try/icache_2r_v1/icache/work/rtl_sim/csrc' \

Command: /data/usr/xuemy/try/icache_2r_v1/icache/work/rtl_sim/./simv +v2k -a com.log +WAVE
Chronologic VCS simulator copyright 1991-2022
Contains Synopsys proprietary information.
Compiler version T-2022.06_Full64; Runtime version T-2022.06_Full64;  Nov  1 14:14 2024
*Verdi* Loading libsscore_vcs202206.so
FSDB Dumper for VCS, Release Verdi_T-2022.06, Linux x86_64/64bit, 05/29/2022
(C) 1996 - 2022 by Synopsys, Inc.
*Verdi* FSDB WARNING: The FSDB file already exists. Overwriting the FSDB file may crash the programs that are using this file.
*Verdi* : Create FSDB file 'wave.fsdb'
*Verdi* : Begin traversing the scopes, layer (0).
*Verdi* : Enable +all dumping.
*Verdi* : End of traversing.
*Verdi* : fsdbDumpon - All FSDB files at 0 ns.
send_upstream_req: tag=          1, index=          1, id=          1
send a up req, tag=00000001, index=00000001, id=00000001,                  450
send_upstream_req: tag=          1, index=          1, id=          2
send a up req, tag=00000002, index=00000002, id=00000002,                  510
send_upstream_req: tag=          1, index=          2, id=          3
send a up req, tag=00000003, index=00000003, id=00000003,                  570
send_upstream_req: tag=          2, index=          1, id=          4
send a up req, tag=00000004, index=00000004, id=00000004,                  630
send_upstream_req: tag=          2, index=          1, id=          5
send a up req, tag=00000005, index=00000005, id=00000005,                  690
downstream_rxdat = 0000407e                    710, nid=1,remain pkt=2
send_upstream_req: tag=          1, index=          2, id=          6
send a up req, tag=00000006, index=00000006, id=00000006,                  750
send_upstream_req: tag=          1, index=          2, id=          7
send a up req, tag=00000007, index=00000007, id=00000007,                  810
send_upstream_req: tag=          1, index=          1, id=          8
send a up req, tag=00000008, index=00000008, id=00000008,                  870
send_upstream_req: tag=          1, index=          1, id=          9
send a up req, tag=00000009, index=00000009, id=00000009,                  930
send_upstream_req: tag=          1, index=          1, id=         10
send a up req, tag=0000000a, index=0000000a, id=0000000a,                  990
downstream_rxdat = 000040be                    990, nid=1,remain pkt=1
send_upstream_req: tag=          3, index=          2, id=         11
send a up req, tag=0000000b, index=0000000b, id=0000000b,                 1050
txnid  1 compare pass
send_upstream_req: tag=          1, index=          1, id=         12
send a up req, tag=0000000c, index=0000000c, id=0000000c,                 1110
send_upstream_req: tag=          2, index=          2, id=         13
send a up req, tag=0000000d, index=0000000d, id=0000000d,                 1170
send_upstream_req: tag=          3, index=          2, id=         14
send a up req, tag=0000000e, index=0000000e, id=0000000e,                 1230
downstream_rxdat = 000040fe                   1250, nid=3,remain pkt=1
send_upstream_req: tag=          3, index=          1, id=         15
send a up req, tag=0000000f, index=0000000f, id=0000000f,                 1290
send_upstream_req: tag=          1, index=          2, id=         16
txnid  3 compare pass
send a up req, tag=00000010, index=00000010, id=00000010,                 1350
send_upstream_req: tag=          2, index=          1, id=         17
send a up req, tag=00000011, index=00000011, id=00000011,                 1410
send_upstream_req: tag=          3, index=          2, id=         18
send a up req, tag=00000012, index=00000012, id=00000012,                 1470
send_upstream_req: tag=          2, index=          1, id=         19
downstream_rxdat = 000040be                   1530, nid=2,remain pkt=0
txnid  2 compare pass
send a up req, tag=00000013, index=00000013, id=00000013,                 1630
send_upstream_req: tag=          3, index=          2, id=         20
txnid  6 compare pass
send a up req, tag=00000014, index=00000014, id=00000014,                 1690
send_upstream_req: tag=          3, index=          2, id=         21
txnid  7 compare pass
send a up req, tag=00000015, index=00000015, id=00000015,                 1750
send_upstream_req: tag=          1, index=          1, id=         22
downstream_rxdat = 0000807e                   1870, nid=4,remain pkt=1
downstream_rxdat = 000080be                   2130, nid=4,remain pkt=0
txnid  4 compare pass
send a up req, tag=00000016, index=00000016, id=00000016,                 2230
send_upstream_req: tag=          3, index=          2, id=         23
downstream_rxdat = 000080be                   2450, nid=5,remain pkt=0
txnid  5 compare pass
send a up req, tag=00000017, index=00000017, id=00000017,                 2550
send_upstream_req: tag=          2, index=          2, id=         24
downstream_rxdat = 0000407e                   2790, nid=8,remain pkt=0
txnid  8 compare pass
send a up req, tag=00000018, index=00000018, id=00000018,                 2890
send_upstream_req: tag=          1, index=          1, id=         25
txnid  9 compare pass
send a up req, tag=00000019, index=00000019, id=00000019,                 2950
send_upstream_req: tag=          2, index=          2, id=         26
txnid 10 compare pass
send a up req, tag=0000001a, index=0000001a, id=0000001a,                 3010
send_upstream_req: tag=          2, index=          1, id=         27
txnid 12 compare pass
send a up req, tag=0000001b, index=0000001b, id=0000001b,                 3070
send_upstream_req: tag=          1, index=          2, id=         28
downstream_rxdat = 0000c0be                   3250, nid=b,remain pkt=2
downstream_rxdat = 0000c0fe                   3510, nid=b,remain pkt=1
txnid 11 compare pass
send a up req, tag=0000001c, index=0000001c, id=0000001c,                 3610
send_upstream_req: tag=          1, index=          1, id=         29
downstream_rxdat = 0000c07e                   3790, nid=f,remain pkt=2
txnid 15 compare pass
send a up req, tag=0000001d, index=0000001d, id=0000001d,                 3890
downstream_rxdat = 000080be                   4070, nid=d,remain pkt=1
downstream_rxdat = 000080fe                   4350, nid=d,remain pkt=0
txnid 13 compare pass
downstream_rxdat = 0000c0be                   4690, nid=e,remain pkt=1
downstream_rxdat = 0000c0fe                   4970, nid=e,remain pkt=0
txnid 14 compare pass
downstream_rxdat = 000040be                   5310, nid=10,remain pkt=0
txnid 16 compare pass
downstream_rxdat = 000080be                   5650, nid=11,remain pkt=0
txnid 17 compare pass
txnid 19 compare pass
downstream_rxdat = 0000c0be                   5970, nid=12,remain pkt=2
downstream_rxdat = 0000c0fe                   6230, nid=12,remain pkt=1
txnid 18 compare pass
downstream_rxdat = 0000407e                   6490, nid=16,remain pkt=1
downstream_rxdat = 0000c0fe                   6750, nid=14,remain pkt=0
txnid 20 compare pass
txnid 21 compare pass
txnid 23 compare pass
downstream_rxdat = 000040be                   7150, nid=16,remain pkt=1
txnid 22 compare pass
downstream_rxdat = 000080fe                   7430, nid=18,remain pkt=0
Error: "/data/usr/xuemy/try/icache_2r_v1/icache/icache_top_v2_tb.sv", 336: icache_top_tb.unnamed$$_14.unnamed$$_15: at time 7510 ns
compare error when txnid=24
Error: "/data/usr/xuemy/try/icache_2r_v1/icache/icache_top_v2_tb.sv", 336: icache_top_tb.unnamed$$_14.unnamed$$_15: at time 7570 ns
compare error when txnid=26
txnid 27 compare pass
downstream_rxdat = 000040be                   7770, nid=19,remain pkt=1
txnid 25 compare pass
downstream_rxdat = 000040fe                   8030, nid=1c,remain pkt=0
txnid 28 compare pass
txnid 29 compare pass
PC send 29 up req, receive 29 tx dat
PC send 25 tx req, receive 25 rx dat
$finish called from file "/data/usr/xuemy/try/icache_2r_v1/icache/icache_top_v2_tb.sv", line 241.
$finish at simulation time                48890
           V C S   S i m u l a t i o n   R e p o r t 
Time: 48890 ns
CPU Time:      0.300 seconds;       Data structure size:   0.1Mb
Fri Nov  1 14:14:24 2024
CPU time: 1.141 seconds to compile + .352 seconds to elab + .335 seconds to link + .326 seconds in simulation
Verdi KDB elaboration done and the database successfully generated: 0 error(s), 0 warning(s)
